{
  "formatVersion": 1,
  "database": {
    "version": 3,
    "identityHash": "f848eaa3c49f42d055eb5f754db78288",
    "entities": [
      {
        "tableName": "images",
        "createSql": "CREATE TABLE IF NOT EXISTS `${TABLE_NAME}` (`file` TEXT NOT NULL, `reference` TEXT NOT NULL, `type` TEXT NOT NULL, `author` TEXT, `license` TEXT, PRIMARY KEY(`file`))",
        "fields": [
          {
            "fieldPath": "file",
            "columnName": "file",
            "affinity": "TEXT",
            "notNull": true
          },
          {
            "fieldPath": "reference",
            "columnName": "reference",
            "affinity": "TEXT",
            "notNull": true
          },
          {
            "fieldPath": "type",
            "columnName": "type",
            "affinity": "TEXT",
            "notNull": true
          },
          {
            "fieldPath": "author",
            "columnName": "author",
            "affinity": "TEXT",
            "notNull": false
          },
          {
            "fieldPath": "license",
            "columnName": "license",
            "affinity": "TEXT",
            "notNull": false
          }
        ],
        "primaryKey": {
          "columnNames": [
            "file"
          ],
          "autoGenerate": false
        },
        "indices": [],
        "foreignKeys": []
      },
      {
        "tableName": "aliases",
        "createSql": "CREATE TABLE IF NOT EXISTS `${TABLE_NAME}` (`stall` TEXT NOT NULL, `alias` TEXT NOT NULL, PRIMARY KEY(`stall`, `alias`))",
        "fields": [
          {
            "fieldPath": "stall",
            "columnName": "stall",
            "affinity": "TEXT",
            "notNull": true
          },
          {
            "fieldPath": "alias",
            "columnName": "alias",
            "affinity": "TEXT",
            "notNull": true
          }
        ],
        "primaryKey": {
          "columnNames": [
            "stall",
            "alias"
          ],
          "autoGenerate": false
        },
        "indices": [],
        "foreignKeys": []
      },
      {
        "tableName": "items",
        "createSql": "CREATE TABLE IF NOT EXISTS `${TABLE_NAME}` (`slug` TEXT NOT NULL, `name` TEXT NOT NULL, PRIMARY KEY(`slug`, `name`))",
        "fields": [
          {
            "fieldPath": "slug",
            "columnName": "slug",
            "affinity": "TEXT",
            "notNull": true
          },
          {
            "fieldPath": "name",
            "columnName": "name",
            "affinity": "TEXT",
            "notNull": true
          }
        ],
        "primaryKey": {
          "columnNames": [
            "slug",
            "name"
          ],
          "autoGenerate": false
        },
        "indices": [],
        "foreignKeys": []
      },
      {
        "tableName": "stalls",
        "createSql": "CREATE TABLE IF NOT EXISTS `${TABLE_NAME}` (`slug` TEXT NOT NULL, `type` TEXT NOT NULL, `center_lng` REAL NOT NULL, `center_lat` REAL NOT NULL, `min_lng` REAL NOT NULL, `min_lat` REAL NOT NULL, `max_lng` REAL NOT NULL, `max_lat` REAL NOT NULL, `name` TEXT, `operator` TEXT, `description` TEXT, `priority` INTEGER NOT NULL, `is_searchable` INTEGER NOT NULL, PRIMARY KEY(`slug`))",
        "fields": [
          {
            "fieldPath": "slug",
            "columnName": "slug",
            "affinity": "TEXT",
            "notNull": true
          },
          {
            "fieldPath": "type",
            "columnName": "type",
            "affinity": "TEXT",
            "notNull": true
          },
          {
            "fieldPath": "centerLng",
            "columnName": "center_lng",
            "affinity": "REAL",
            "notNull": true
          },
          {
            "fieldPath": "centerLat",
            "columnName": "center_lat",
            "affinity": "REAL",
            "notNull": true
          },
          {
            "fieldPath": "minLng",
            "columnName": "min_lng",
            "affinity": "REAL",
            "notNull": true
          },
          {
            "fieldPath": "minLat",
            "columnName": "min_lat",
            "affinity": "REAL",
            "notNull": true
          },
          {
            "fieldPath": "maxLng",
            "columnName": "max_lng",
            "affinity": "REAL",
            "notNull": true
          },
          {
            "fieldPath": "maxLat",
            "columnName": "max_lat",
            "affinity": "REAL",
            "notNull": true
          },
          {
            "fieldPath": "name",
            "columnName": "name",
            "affinity": "TEXT",
            "notNull": false
          },
          {
            "fieldPath": "operator",
            "columnName": "operator",
            "affinity": "TEXT",
            "notNull": false
          },
          {
            "fieldPath": "description",
            "columnName": "description",
            "affinity": "TEXT",
            "notNull": false
          },
          {
            "fieldPath": "priority",
            "columnName": "priority",
            "affinity": "INTEGER",
            "notNull": true
          },
          {
            "fieldPath": "isSearchable",
            "columnName": "is_searchable",
            "affinity": "INTEGER",
            "notNull": true
          }
        ],
        "primaryKey": {
          "columnNames": [
            "slug"
          ],
          "autoGenerate": false
        },
        "indices": [],
        "foreignKeys": []
      },
      {
        "tableName": "stall_items",
        "createSql": "CREATE TABLE IF NOT EXISTS `${TABLE_NAME}` (`stall` TEXT NOT NULL, `item` TEXT NOT NULL, PRIMARY KEY(`stall`, `item`), FOREIGN KEY(`stall`) REFERENCES `stalls`(`slug`) ON UPDATE NO ACTION ON DELETE NO ACTION )",
        "fields": [
          {
            "fieldPath": "stall",
            "columnName": "stall",
            "affinity": "TEXT",
            "notNull": true
          },
          {
            "fieldPath": "item",
            "columnName": "item",
            "affinity": "TEXT",
            "notNull": true
          }
        ],
        "primaryKey": {
          "columnNames": [
            "stall",
            "item"
          ],
          "autoGenerate": false
        },
        "indices": [],
        "foreignKeys": [
          {
            "table": "stalls",
            "onDelete": "NO ACTION",
            "onUpdate": "NO ACTION",
            "columns": [
              "stall"
            ],
            "referencedColumns": [
              "slug"
            ]
          }
        ]
      },
      {
        "tableName": "stall_sub_types",
        "createSql": "CREATE TABLE IF NOT EXISTS `${TABLE_NAME}` (`stall` TEXT NOT NULL, `sub_type` TEXT NOT NULL, PRIMARY KEY(`stall`, `sub_type`))",
        "fields": [
          {
            "fieldPath": "stall",
            "columnName": "stall",
            "affinity": "TEXT",
            "notNull": true
          },
          {
            "fieldPath": "subType",
            "columnName": "sub_type",
            "affinity": "TEXT",
            "notNull": true
          }
        ],
        "primaryKey": {
          "columnNames": [
            "stall",
            "sub_type"
          ],
          "autoGenerate": false
        },
        "indices": [],
        "foreignKeys": []
      },
      {
        "tableName": "sub_types",
        "createSql": "CREATE TABLE IF NOT EXISTS `${TABLE_NAME}` (`slug` TEXT NOT NULL, `name` TEXT NOT NULL, PRIMARY KEY(`slug`, `name`))",
        "fields": [
          {
            "fieldPath": "slug",
            "columnName": "slug",
            "affinity": "TEXT",
            "notNull": true
          },
          {
            "fieldPath": "name",
            "columnName": "name",
            "affinity": "TEXT",
            "notNull": true
          }
        ],
        "primaryKey": {
          "columnNames": [
            "slug",
            "name"
          ],
          "autoGenerate": false
        },
        "indices": [],
        "foreignKeys": []
      },
      {
        "tableName": "departures",
        "createSql": "CREATE TABLE IF NOT EXISTS `${TABLE_NAME}` (`station` TEXT NOT NULL, `time` TEXT NOT NULL, `day` INTEGER NOT NULL, PRIMARY KEY(`station`, `time`))",
        "fields": [
          {
            "fieldPath": "station",
            "columnName": "station",
            "affinity": "TEXT",
            "notNull": true
          },
          {
            "fieldPath": "time",
            "columnName": "time",
            "affinity": "TEXT",
            "notNull": true
          },
          {
            "fieldPath": "day",
            "columnName": "day",
            "affinity": "INTEGER",
            "notNull": true
          }
        ],
        "primaryKey": {
          "columnNames": [
            "station",
            "time"
          ],
          "autoGenerate": false
        },
        "indices": [],
        "foreignKeys": []
      },
      {
        "tableName": "routes",
        "createSql": "CREATE TABLE IF NOT EXISTS `${TABLE_NAME}` (`slug` TEXT NOT NULL, `name` TEXT NOT NULL, PRIMARY KEY(`slug`))",
        "fields": [
          {
            "fieldPath": "slug",
            "columnName": "slug",
            "affinity": "TEXT",
            "notNull": true
          },
          {
            "fieldPath": "name",
            "columnName": "name",
            "affinity": "TEXT",
            "notNull": true
          }
        ],
        "primaryKey": {
          "columnNames": [
            "slug"
          ],
          "autoGenerate": false
        },
        "indices": [],
        "foreignKeys": []
      },
      {
        "tableName": "stations",
        "createSql": "CREATE TABLE IF NOT EXISTS `${TABLE_NAME}` (`slug` TEXT NOT NULL, `name` TEXT NOT NULL, `route` TEXT NOT NULL, `comment` TEXT, `longitude` REAL, `latitude` REAL, `is_return` INTEGER NOT NULL, PRIMARY KEY(`slug`))",
        "fields": [
          {
            "fieldPath": "slug",
            "columnName": "slug",
            "affinity": "TEXT",
            "notNull": true
          },
          {
            "fieldPath": "name",
            "columnName": "name",
            "affinity": "TEXT",
            "notNull": true
          },
          {
            "fieldPath": "route",
            "columnName": "route",
            "affinity": "TEXT",
            "notNull": true
          },
          {
            "fieldPath": "comment",
            "columnName": "comment",
            "affinity": "TEXT",
            "notNull": false
          },
          {
            "fieldPath": "longitude",
            "columnName": "longitude",
            "affinity": "REAL",
            "notNull": false
          },
          {
            "fieldPath": "latitude",
            "columnName": "latitude",
            "affinity": "REAL",
            "notNull": false
          },
          {
            "fieldPath": "isReturnStation",
            "columnName": "is_return",
            "affinity": "INTEGER",
            "notNull": true
          }
        ],
        "primaryKey": {
          "columnNames": [
            "slug"
          ],
          "autoGenerate": false
        },
        "indices": [],
        "foreignKeys": []
      },
      {
        "tableName": "transport_prices",
        "createSql": "CREATE TABLE IF NOT EXISTS `${TABLE_NAME}` (`station` TEXT NOT NULL, `type` TEXT NOT NULL, `price` INTEGER NOT NULL, PRIMARY KEY(`station`, `type`))",
        "fields": [
          {
            "fieldPath": "station",
            "columnName": "station",
            "affinity": "TEXT",
            "notNull": true
          },
          {
            "fieldPath": "type",
            "columnName": "type",
            "affinity": "TEXT",
            "notNull": true
          },
          {
            "fieldPath": "price",
            "columnName": "price",
            "affinity": "INTEGER",
            "notNull": true
          }
        ],
        "primaryKey": {
          "columnNames": [
            "station",
            "type"
          ],
          "autoGenerate": false
        },
        "indices": [],
        "foreignKeys": []
      },
      {
        "tableName": "events",
        "createSql": "CREATE TABLE IF NOT EXISTS `${TABLE_NAME}` (`slug` TEXT NOT NULL, `name` TEXT NOT NULL, `location` TEXT, `description` TEXT, `start` TEXT NOT NULL, `end` TEXT, PRIMARY KEY(`slug`), FOREIGN KEY(`location`) REFERENCES `stalls`(`slug`) ON UPDATE NO ACTION ON DELETE NO ACTION )",
        "fields": [
          {
            "fieldPath": "slug",
            "columnName": "slug",
            "affinity": "TEXT",
            "notNull": true
          },
          {
            "fieldPath": "name",
            "columnName": "name",
            "affinity": "TEXT",
            "notNull": true
          },
          {
            "fieldPath": "location",
            "columnName": "location",
            "affinity": "TEXT",
            "notNull": false
          },
          {
            "fieldPath": "description",
            "columnName": "description",
            "affinity": "TEXT",
            "notNull": false
          },
          {
            "fieldPath": "start",
            "columnName": "start",
            "affinity": "TEXT",
            "notNull": true
          },
          {
            "fieldPath": "end",
            "columnName": "end",
            "affinity": "TEXT",
            "notNull": false
          }
        ],
        "primaryKey": {
          "columnNames": [
            "slug"
          ],
          "autoGenerate": false
        },
        "indices": [],
        "foreignKeys": [
          {
            "table": "stalls",
            "onDelete": "NO ACTION",
            "onUpdate": "NO ACTION",
            "columns": [
              "location"
            ],
            "referencedColumns": [
              "slug"
            ]
          }
        ]
      }
    ],
    "views": [],
    "setupQueries": [
      "CREATE TABLE IF NOT EXISTS room_master_table (id INTEGER PRIMARY KEY,identity_hash TEXT)",
      "INSERT OR REPLACE INTO room_master_table (id,identity_hash) VALUES(42, 'f848eaa3c49f42d055eb5f754db78288')"
    ]
  }
}