Vechta Flugplatz
Vechtaer Marsch/Straßburger Str.
|
Erwachsene|200|Kinder (3-11 Jahre)|140
18:30|19:00|19:30|20:00|20:30|21:00|21:30|22:00|22:30|23:00|23:30|00:00|00:30|01:00|01:30|02:00|02:30
15:00|16:00|17:00|18:00|18:30|19:00|19:30|20:00|20:30|21:00|21:30|22:00|22:30|23:00|23:30|00:00|00:30|01:00|01:30|02:00|02:30|03:00|03:30
15:00|16:00|17:00|18:00|18:30|19:00|19:30|20:00|20:30|21:00|21:30|22:00|22:30|23:00|23:30|00:00|00:30|01:00|01:30|02:00|02:30|03:00|03:30
13:00|14:00|15:00|16:00|17:00|18:00|19:00|20:00|21:00|22:00|23:00|00:00
08:00|09:00|10:00|11:00|12:00|13:00|14:00|15:00|16:00|17:00|18:00|19:00|20:00|21:00|22:00|23:00|00:00|01:00|02:00
14:00|15:00|16:00|17:00|18:00|19:00|20:00
undefined
Vechtaer Marsch/Dornierstr.
|
Erwachsene|200|Kinder (3-11 Jahre)|140
18:32|19:02|19:32|20:02|20:32|21:02|21:32|22:02|22:32|23:02|23:32|00:02|00:32|01:02|01:32|02:02|02:32
15:02|16:02|17:02|18:02|18:32|19:02|19:32|20:02|20:32|21:02|21:32|22:02|22:32|23:02|23:32|00:02|00:32|01:02|01:32|02:02|02:32|03:02|03:32
15:02|16:02|17:02|18:02|18:32|19:02|19:32|20:02|20:32|21:02|21:32|22:02|22:32|23:02|23:32|00:02|00:32|01:02|01:32|02:02|02:32|03:02|03:32
13:02|14:02|15:02|16:02|17:02|18:02|19:02|20:02|21:02|22:02|23:02|00:02
08:02|09:02|10:02|11:02|12:02|13:02|14:02|15:02|16:02|17:02|18:02|19:02|20:02|21:02|22:02|23:02|00:02|01:02|02:02
14:02|15:02|16:02|17:02|18:02|19:02|20:02
undefined
Vechtaer Marsch, Famila Markt
|
Erwachsene|200|Kinder (3-11 Jahre)|140
18:34|19:04|19:34|20:04|20:34|21:04|21:34|22:04|22:34|23:04|23:34|00:04|00:34|01:04|01:34|02:04|02:34
15:04|16:04|17:04|18:04|18:34|19:04|19:34|20:04|20:34|21:04|21:34|22:04|22:34|23:04|23:34|00:04|00:34|01:04|01:34|02:04|02:34|03:04|03:34
15:04|16:04|17:04|18:04|18:34|19:04|19:34|20:04|20:34|21:04|21:34|22:04|22:34|23:04|23:34|00:04|00:34|01:04|01:34|02:04|02:34|03:04|03:34
13:04|14:04|15:04|16:04|17:04|18:04|19:04|20:04|21:04|22:04|23:04|00:04
08:04|09:04|10:04|11:04|12:04|13:04|14:04|15:04|16:04|17:04|18:04|19:04|20:04|21:04|22:04|23:04|00:04|01:04|02:04
14:04|15:04|16:04|17:04|18:04|19:04|20:04
undefined
Vechtaer Marsch/Wiener Str.
|
Erwachsene|200|Kinder (3-11 Jahre)|140
18:36|19:06|19:36|20:06|20:36|21:06|21:36|22:06|22:36|23:06|23:36|00:06|00:36|01:06|01:36|02:06|02:36
15:06|16:06|17:06|18:06|18:36|19:06|19:36|20:06|20:36|21:06|21:36|22:06|22:36|23:06|23:36|00:06|00:36|01:06|01:36|02:06|02:36|03:06|03:36
15:06|16:06|17:06|18:06|18:36|19:06|19:36|20:06|20:36|21:06|21:36|22:06|22:36|23:06|23:36|00:06|00:36|01:06|01:36|02:06|02:36|03:06|03:36
13:06|14:06|15:06|16:06|17:06|18:06|19:06|20:06|21:06|22:06|23:06|00:06
08:06|09:06|10:06|11:06|12:06|13:06|14:06|15:06|16:06|17:06|18:06|19:06|20:06|21:06|22:06|23:06|00:06|01:06|02:06
14:06|15:06|16:06|17:06|18:06|19:06|20:06
undefined
Stukenborg/Heinestr.
|
Erwachsene|200|Kinder (3-11 Jahre)|140
18:37|19:07|19:37|20:07|20:37|21:07|21:37|22:07|22:37|23:07|23:37|00:07|00:37|01:07|01:37|02:07|02:37
15:07|16:07|17:07|18:07|18:37|19:07|19:37|20:07|20:37|21:07|21:37|22:07|22:37|23:07|23:37|00:07|00:37|01:07|01:37|02:07|02:37|03:07|03:37
15:07|16:07|17:07|18:07|18:37|19:07|19:37|20:07|20:37|21:07|21:37|22:07|22:37|23:07|23:37|00:07|00:37|01:07|01:37|02:07|02:37|03:07|03:37
13:07|14:07|15:07|16:07|17:07|18:07|19:07|20:07|21:07|22:07|23:07|00:07
08:07|09:07|10:07|11:07|12:07|13:07|14:07|15:07|16:07|17:07|18:07|19:07|20:07|21:07|22:07|23:07|00:07|01:07|02:07
14:07|15:07|16:07|17:07|18:07|19:07|20:07
undefined
Stukenborer Str./Graskamp
|
Erwachsene|200|Kinder (3-11 Jahre)|140
18:38|19:08|19:38|20:08|20:38|21:08|21:38|22:08|22:38|23:08|23:38|00:08|00:38|01:08|01:38|02:08|02:38
15:08|16:08|17:08|18:08|18:38|19:08|19:38|20:08|20:38|21:08|21:38|22:08|22:38|23:08|23:38|00:08|00:38|01:08|01:38|02:08|02:38|03:08|03:38
15:08|16:08|17:08|18:08|18:38|19:08|19:38|20:08|20:38|21:08|21:38|22:08|22:38|23:08|23:38|00:08|00:38|01:08|01:38|02:08|02:38|03:08|03:38
13:08|14:08|15:08|16:08|17:08|18:08|19:08|20:08|21:08|22:08|23:08|00:08
08:08|09:08|10:08|11:08|12:08|13:08|14:08|15:08|16:08|17:08|18:08|19:08|20:08|21:08|22:08|23:08|00:08|01:08|02:08
14:08|15:08|16:08|17:08|18:08|19:08|20:08
undefined
Graskamp/Hirsekamp
|
Erwachsene|200|Kinder (3-11 Jahre)|140
18:40|19:10|19:40|20:10|20:40|21:10|21:40|22:10|22:40|23:10|23:40|00:10|00:40|01:10|01:40|02:10|02:40
15:10|16:10|17:10|18:10|18:40|19:10|19:40|20:10|20:40|21:10|21:40|22:10|22:40|23:10|23:40|00:10|00:40|01:10|01:40|02:10|02:40|03:10|03:40
15:10|16:10|17:10|18:10|18:40|19:10|19:40|20:10|20:40|21:10|21:40|22:10|22:40|23:10|23:40|00:10|00:40|01:10|01:40|02:10|02:40|03:10|03:40
13:10|14:10|15:10|16:10|17:10|18:10|19:10|20:10|21:10|22:10|23:10|00:10
08:10|09:10|10:10|11:10|12:10|13:10|14:10|15:10|16:10|17:10|18:10|19:10|20:10|21:10|22:10|23:10|00:10|01:10|02:10
14:10|15:10|16:10|17:10|18:10|19:10|20:10
undefined
Weizenkamp/Riedenkamp
|
Erwachsene|200|Kinder (3-11 Jahre)|140
18:42|19:12|19:42|20:12|20:42|21:12|21:42|22:12|22:42|23:12|23:42|00:12|00:42|01:12|01:42|02:12|02:42
15:12|16:12|17:12|18:12|18:42|19:12|19:42|20:12|20:42|21:12|21:42|22:12|22:42|23:12|23:42|00:12|00:42|01:12|01:42|02:12|02:42|03:12|03:42
15:12|16:12|17:12|18:12|18:42|19:12|19:42|20:12|20:42|21:12|21:42|22:12|22:42|23:12|23:42|00:12|00:42|01:12|01:42|02:12|02:42|03:12|03:42
13:12|14:12|15:12|16:12|17:12|18:12|19:12|20:12|21:12|22:12|23:12|00:12
08:12|09:12|10:12|11:12|12:12|13:12|14:12|15:12|16:12|17:12|18:12|19:12|20:12|21:12|22:12|23:12|00:12|01:12|02:12
14:12|15:12|16:12|17:12|18:12|19:12|20:12
undefined
Petersburger Str./Schweriner Str.
|
Erwachsene|200|Kinder (3-11 Jahre)|140
18:44|19:14|19:44|20:14|20:44|21:14|21:44|22:14|22:44|23:14|23:44|00:14|00:44|01:14|01:44|02:14|02:44
15:14|16:14|17:14|18:14|18:44|19:14|19:44|20:14|20:44|21:14|21:44|22:14|22:44|23:14|23:44|00:14|00:44|01:14|01:44|02:14|02:44|03:14|03:44
15:14|16:14|17:14|18:14|18:44|19:14|19:44|20:14|20:44|21:14|21:44|22:14|22:44|23:14|23:44|00:14|00:44|01:14|01:44|02:14|02:44|03:14|03:44
13:14|14:14|15:14|16:14|17:14|18:14|19:14|20:14|21:14|22:14|23:14|00:14
08:14|09:14|10:14|11:14|12:14|13:14|14:14|15:14|16:14|17:14|18:14|19:14|20:14|21:14|22:14|23:14|00:14|01:14|02:14
14:14|15:14|16:14|17:14|18:14|19:14|20:14
undefined
Allensteiner Str., Fahrschule Moss
|
Erwachsene|200|Kinder (3-11 Jahre)|140
18:46|19:16|19:46|20:16|20:46|21:16|21:46|22:16|22:46|23:16|23:46|00:16|00:46|01:16|01:46|02:16|02:46
15:16|16:16|17:16|18:16|18:46|19:16|19:46|20:16|20:46|21:16|21:46|22:16|22:46|23:16|23:46|00:16|00:46|01:16|01:46|02:16|02:46|03:16|03:46
15:16|16:16|17:16|18:16|18:46|19:16|19:46|20:16|20:46|21:16|21:46|22:16|22:46|23:16|23:46|00:16|00:46|01:16|01:46|02:16|02:46|03:16|03:46
13:16|14:16|15:16|16:16|17:16|18:16|19:16|20:16|21:16|22:16|23:16|00:16
08:16|09:16|10:16|11:16|12:16|13:16|14:16|15:16|16:16|17:16|18:16|19:16|20:16|21:16|22:16|23:16|00:16|01:16|02:16
14:16|15:16|16:16|17:16|18:16|19:16|20:16
undefined
Allensteiner Str./Dresdener Str.
|
Erwachsene|200|Kinder (3-11 Jahre)|140
18:47|19:17|19:47|20:17|20:47|21:17|21:47|22:17|22:47|23:17|23:47|00:17|00:47|01:17|01:47|02:17|02:47
15:17|16:17|17:17|18:17|18:47|19:17|19:47|20:17|20:47|21:17|21:47|22:17|22:47|23:17|23:47|00:17|00:47|01:17|01:47|02:17|02:47|03:17|03:47
15:17|16:17|17:17|18:17|18:47|19:17|19:47|20:17|20:47|21:17|21:47|22:17|22:47|23:17|23:47|00:17|00:47|01:17|01:47|02:17|02:47|03:17|03:47
13:17|14:17|15:17|16:17|17:17|18:17|19:17|20:17|21:17|22:17|23:17|00:17
08:17|09:17|10:17|11:17|12:17|13:17|14:17|15:17|16:17|17:17|18:17|19:17|20:17|21:17|22:17|23:17|00:17|01:17|02:17
14:17|15:17|16:17|17:17|18:17|19:17|20:17
undefined
Stoppelmarkt
|
Erwachsene|200|Kinder (3-11 Jahre)|140
18:50|19:20|19:50|20:20|20:50|21:20|21:50|22:20|22:50|23:20|23:50|00:20|00:50|01:20|01:50|02:20|02:50
15:20|16:20|17:20|18:20|18:50|19:20|19:50|20:20|20:50|21:20|21:50|22:20|22:50|23:20|23:50|00:20|00:50|01:20|01:50|02:20|02:50|03:20|03:50
15:20|16:20|17:20|18:20|18:50|19:20|19:50|20:20|20:50|21:20|21:50|22:20|22:50|23:20|23:50|00:20|00:50|01:20|01:50|02:20|02:50|03:20|03:50
13:20|14:20|15:20|16:20|17:20|18:20|19:20|20:20|21:20|22:20|23:20|00:20
08:20|09:20|10:20|11:20|12:20|13:20|14:20|15:20|16:20|17:20|18:20|19:20|20:20|21:20|22:20|23:20|00:20|01:20|02:20
14:20|15:20|16:20|17:20|18:20|19:20|20:20
undefined
return
|
Erwachsene|200|Kinder (3-11 Jahre)|140
19:00|19:30|20:00|20:30|21:00|21:30|22:00|22:30|23:00|23:30|00:00|00:30|01:00|01:30|02:00|02:30|03:00
15:30|16:30|17:30|18:30|19:00|19:30|20:00|20:30|21:00|21:30|22:00|22:30|23:00|23:30|00:00|00:30|01:00|01:30|02:00|02:30|03:00|03:30|04:00
15:30|16:30|17:30|18:30|19:00|19:30|20:00|20:30|21:00|21:30|22:00|22:30|23:00|23:30|00:00|00:30|01:00|01:30|02:00|02:30|03:00|03:30|04:00
13:30|14:30|15:30|16:30|17:30|18:30|19:30|20:30|21:30|22:30|23:30|00:30
10:30|11:30|12:30|13:30|14:30|15:30|16:30|17:30|18:30|19:30|20:30|21:30|22:30|23:30|00:30|01:30|02:30|03:30
14:30|15:30|16:30|17:30|18:30|19:30|20:30|23:00
undefined